Gorard Segregation Index
…
Warning: There was 1 warning in `summarise()`.
ℹ In argument: `index_of_dissimilarity =
  calculate_index_of_dissimilarity(cur_data())`.
ℹ In group 1: `LEA = 202`.
Caused by warning:
! `cur_data()` was deprecated in dplyr 1.1.0.
ℹ Please use `pick()` instead.

# Print the results
print(results_df)

# A tibble: 152 × 3
     LEA index_of_dissimilarity gorard_segregation
   <dbl>                  <dbl>              <dbl>
 1   202                 0.166              0.0854
 2   203                 0.201              0.139 
 3   204                 0.203              0.103 
 4   205                 0.311              0.211 
 5   206                 0.146              0.0700
 6   207                 0.208              0.132 
 7   208                 0.267              0.144 
 8   209                 0.154              0.101 
 9   210                 0.255              0.151 
10   211                 0.0808             0.0375
# ℹ 142 more rows
…
